%YAML 1.1
%TAG !u! tag:unity3d.com,2011:
--- !u!114 &11400000
MonoBehaviour:
  m_ObjectHideFlags: 0
  m_PrefabParentObject: {fileID: 0}
  m_PrefabInternal: {fileID: 0}
  m_GameObject: {fileID: 0}
  m_Enabled: 1
  m_EditorHideFlags: 0
  m_Script: {fileID: 11500000, guid: 80688ec6a3ac4f54abe8ff4960abdd62, type: 3}
  m_Name: Tier 1 Bow
  m_EditorClassIdentifier: 
  name: Toy Bow
  description: Guarenteed to shoot an arrow through a piece of paper, cardboard is
    not guarenteed.
  icon: {fileID: 0}
  basePrice: 400
  tier: 1
  type: {fileID: 11400000, guid: ec28fd3162a757443a1dee8d0022ba17, type: 2}
  attributes:
  - {fileID: 11400000, guid: a660f6aea7aef9c45bf03993e9f0e537, type: 2}
  - {fileID: 11400000, guid: 86c0ab733839a034e884b6a6a2df8de3, type: 2}
  weaponType: {fileID: 11400000, guid: 0876c377001c976489c921f65c2a6c31, type: 2}
