%YAML 1.1
%TAG !u! tag:unity3d.com,2011:
--- !u!114 &11400000
MonoBehaviour:
  m_ObjectHideFlags: 0
  m_PrefabParentObject: {fileID: 0}
  m_PrefabInternal: {fileID: 0}
  m_GameObject: {fileID: 0}
  m_Enabled: 1
  m_EditorHideFlags: 0
  m_Script: {fileID: 11500000, guid: 8d9c191a999dad64091340af6ac1cdd6, type: 3}
  m_Name: Stale Bread
  m_EditorClassIdentifier: 
  name: Stale Bread
  description: This is nearing it's expiration date.
  icon: {fileID: 0}
  basePrice: 100
  tier: 0
  type: {fileID: 11400000, guid: 4935ca037803fbc4381a4a75d7210d38, type: 2}
  attributes:
  - {fileID: 11400000, guid: 86c0ab733839a034e884b6a6a2df8de3, type: 2}
  foodType: {fileID: 11400000, guid: 4bb2d63b6fb6f4240ba56686b94e4a97, type: 2}
